Sanitising ECOTOX • ECOTOXr
…
as_unit_ecotox(mishmash, warn = FALSE)
#> Mixed units: d*ppm (1), ml/2.5cm (1), oz/1000ft2/10gal (1), kg/100L (1), month (1), ng/kg (1), ug (1), ng/g (1), unit (13), umol/cm3/L (1), 0.0001mmol/L (1), ° (1), ug/d/g (1), pg/mg (1), pmol/mg (1), umol/mg (1), counts/counts/week (1), ug/100ul/counts (1), mg/d/kg (1), umol/h/mg (1), cmol/kg (1), ug/L (1), kg/100kg (1), 1000000counts (1), ul (1), S (1), mmol/g/h (1), g/70d (1), ng/200mg (1), uS/cm2 (1), ml/ha (1), pt/acre (1), mg/g/h (1), counts/m (1), kg/ton (1), ug/g (1), mg/2L (1), umol/g (1) 
#> 1 [d*ppm], 1 [ml/2.5cm], 1 [oz/1000ft2/10gal], 1 [kg/100L], 1 [month], 1 [ng/kg], 1 [ug], 1 [ng/g], 1 [unit], 1 [unit], 1 [umol/cm3/L], 1 [0.0001mmol/L], 1 [°], 1 [unit], 1 [unit], 1 [unit], 1 [ug/d/g], 1 [unit], 1 [pg/mg], 1 [pmol/mg], 1 [unit], 1 [unit], 1 [umol/mg], 1 [counts/counts/week], 1 [unit], 1 [ug/100ul/counts], 1 [mg/d/kg], 1 [umol/h/mg], 1 [cmol/kg], 1 [ug/L], 1 [kg/100kg], 1 [1000000counts], 1 [ul], 1 [S], 1 [mmol/g/h], 1 [g/70d], 1 [unit], 1 [ng/200mg], 1 [uS/cm2], 1 [ml/ha], 1 [pt/acre], 1 [mg/g/h], 1 [counts/m], 1 [kg/ton], 1 [ug/g], 1 [mg/2L], 1 [unit], 1 [umol/g], 1 [unit], 1 [unit]

With process_ecotox_units() you can process an entire
data.frame/tibble, where each column ending
with _unit is processed (i.e. as_unit_ecotox()
is called on them). By setting the .names argument, you can
preserve the original unit column:

tibble(mishmash_unit = mishmash) |>
  process_ecotox_units(.names = "{.col}_parsed", warn = FALSE)
#> # A tibble: 50 × 2
#>    mishmash_unit        mishmash_unit_parsed
#>    <chr>                       <mixed_units>
#>  1 ppm-d                           1 [d*ppm]
#>  2 ml/2.5 cm eu                 1 [ml/2.5cm]
#>  3 fl oz/10 gal/1k sqft 1 [oz/1000ft2/10gal]
#>  4 kg/100 L                      1 [kg/100L]
#>  5 mopm                            1 [month]
#>  6 ng/kg                           1 [ng/kg]
#>  7 ug                                 1 [ug]
#>  8 AI ng/g                          1 [ng/g]
#>  9 PH                               1 [unit]
#> 10 pm                               1 [unit]
#> # ℹ 40 more rows
…
