…
With
[`process_ecotox_units()`](https://pepijn-devries.github.io/ECOTOXr/reference/process_ecotox_units.md)
you can process an entire `data.frame`/`tibble`, where each column
ending with `_unit` is processed
(i.e. [`as_unit_ecotox()`](https://pepijn-devries.github.io/ECOTOXr/reference/as_unit_ecotox.md)
is called on them). By setting the `.names` argument, you can preserve
the original unit column:

``` r

tibble(mishmash_unit = mishmash) |>
  process_ecotox_units(.names = "{.col}_parsed", warn = FALSE)
#> # A tibble: 50 × 2
#>    mishmash_unit           mishmash_unit_parsed
#>    <chr>                          <mixed_units>
#>  1 ppm-d                              1 [ppm*d]
#>  2 ml/2.5 cm eu                  1 [ml/(2.5cm)]
#>  3 fl oz/10 gal/1k sqft 1 [oz/(10gal*1000ft^2)]
#>  4 kg/100 L                       1 [kg/(100L)]
#>  5 mopm                               1 [month]
#>  6 ng/kg                              1 [ng/kg]
#>  7 ug                                    1 [ug]
#>  8 AI ng/g                             1 [ng/g]
#>  9 PH                                  1 [unit]
#> 10 pm                                  1 [unit]
#> # ℹ 40 more rows
```
…
