Searching ECOTOX • ECOTOXr
…
tryCatch({
  search_fields <-
    list_ecotox_web_fields(
      txAdvancedSpecEntries     = "daphnia magna",
      RBSPECSEARCHTYPE          = "EXACT",
      txAdvancedChemicalEntries = "benzene",
      RBCHEMSEARCHTYPE          = "EXACT")

  search_results <- websearch_ecotox(search_fields, verify_ssl = FALSE)

  search_results$`Aquatic-Export`
})

#> # A tibble: 56 × 87
#>    `CAS Number` `Chemical Name` `Chemical Grade` `Chemical Analysis`
#>           <dbl> <chr>           <chr>            <chr>              
#>  1        71432 Benzene         NA               NA                 
#>  2        71432 Benzene         NA               NA                 
#>  3        71432 Benzene         NA               Unmeasured         
#>  4        71432 Benzene         NA               Unmeasured         
#>  5        71432 Benzene         NA               Unmeasured         
#>  6        71432 Benzene         NA               Unmeasured         
#>  7        71432 Benzene         NA               Unmeasured         
#>  8        71432 Benzene         NA               Measured           
#>  9        71432 Benzene         NA               Unmeasured         
#> 10        71432 Benzene         NA               Unmeasured         
#> # ℹ 46 more rows
#> # ℹ 83 more variables: `Chemical Purity Mean Op` <chr>,
#> #   `Chemical Purity Mean(%)` <dbl>, `Chemical Purity Min Op` <lgl>,
#> #   `Chemical Purity Min(%)` <lgl>, `Chemical Purity Max Op` <lgl>,
#> #   `Chemical Purity Max(%)` <lgl>, `Species Scientific Name` <chr>,
#> #   `Species Common Name` <chr>, `Species Group` <chr>,
#> #   `Organism Lifestage` <chr>, `Organism Age Mean Op` <chr>, …
…
